{
    "_links": {
        "self": {
            "href": "http:\/\/default\/taxonomy\/term\/2?_format=hal_json"
        },
        "type": {
            "href": "http:\/\/drupal.org\/rest\/type\/taxonomy_term\/movie"
        }
    },
    "tid": [
        {
            "value": 2
        }
    ],
    "uuid": [
        {
            "value": "00ad7784-a628-43d7-912b-ca7d476b7531"
        }
    ],
    "langcode": [
        {
            "value": "ru",
            "lang": "ru"
        }
    ],
    "vid": [
        {
            "target_id": "movie"
        }
    ],
    "name": [
        {
            "value": "\u0411\u043e\u0435\u0432\u0438\u043a",
            "lang": "ru"
        }
    ],
    "weight": [
        {
            "value": 0
        }
    ],
    "changed": [
        {
            "value": "2018-02-19T13:36:19+00:00",
            "lang": "ru",
            "format": "Y-m-d\\TH:i:sP"
        }
    ],
    "default_langcode": [
        {
            "value": true,
            "lang": "ru"
        }
    ],
    "path": [
        {
            "alias": null,
            "pid": null,
            "langcode": "ru",
            "lang": "ru"
        }
    ]
}