{
    "_links": {
        "self": {
            "href": "http:\/\/default\/sites\/default\/files\/2018-02\/187604chan1309313071950_0.jpg"
        },
        "type": {
            "href": "http:\/\/drupal.org\/rest\/type\/file\/file"
        },
        "http:\/\/drupal.org\/rest\/relation\/file\/file\/uid": [
            {
                "href": "http:\/\/default\/user\/1?_format=hal_json"
            }
        ]
    },
    "fid": [
        {
            "value": 8
        }
    ],
    "uuid": [
        {
            "value": "828951a0-4ee0-4c20-8702-59c538a2a623"
        }
    ],
    "langcode": [
        {
            "value": "ru"
        }
    ],
    "_embedded": {
        "http:\/\/drupal.org\/rest\/relation\/file\/file\/uid": [
            {
                "_links": {
                    "self": {
                        "href": "http:\/\/default\/user\/1?_format=hal_json"
                    },
                    "type": {
                        "href": "http:\/\/drupal.org\/rest\/type\/user\/user"
                    }
                },
                "uuid": [
                    {
                        "value": "86d1945a-db19-4f4c-8cff-120d760806d9"
                    }
                ]
            }
        ]
    },
    "filename": [
        {
            "value": "187604chan1309313071950.jpg"
        }
    ],
    "uri": [
        {
            "value": "http:\/\/default\/sites\/default\/files\/2018-02\/187604chan1309313071950_0.jpg"
        }
    ],
    "filemime": [
        {
            "value": "image\/jpeg"
        }
    ],
    "filesize": [
        {
            "value": 227142
        }
    ],
    "status": [
        {
            "value": true
        }
    ],
    "created": [
        {
            "value": "2018-02-20T07:22:53+00:00",
            "format": "Y-m-d\\TH:i:sP"
        }
    ],
    "changed": [
        {
            "value": "2018-02-20T07:23:01+00:00",
            "format": "Y-m-d\\TH:i:sP"
        }
    ]
}